results/clkDiv.vcd
$timescale 1 ns $end
$date 2024-09-19 00:28:02 $end
$scope module Main $end
$var wire 1 0 myClkDiv $end
$upscope $end
$enddefinitions $end
#0
$dumpvars
b0 0
$end
#1
#2
#3
b1 0
#4
#5
#6
#7
b0 0
#8
#9
#10
#11
b1 0
#12
#13
#14
#15
b0 0
#16
#17
#18
#19
b1 0
#20
#21
#22
#23
b0 0
#24
#25
#26
#27
b1 0
#28
#29
#30
#31
b0 0
#32
#33
#34
#35
b1 0
#36
#37
#38
#39
b0 0
#40
#41
#42
#43
b1 0
#44
#45
#46
#47
b0 0
#48
#49
#50
#51
b1 0
#52
#53
#54
#55
b0 0
#56
#57
#58
#59
b1 0
#60
#61
#62
#63
b0 0
#64
#65
#66
#67
b1 0
#68
#69
#70
#71
b0 0
#72
#73
#74
#75
b1 0
#76
#77
#78
#79
b0 0
#80
#81
#82
#83
b1 0
#84
#85
#86
#87
b0 0
#88
#89
#90
#91
b1 0
#92
#93
#94
#95
b0 0
#96
#97
#98
#99
b1 0
