results/clkGen.vcd
$timescale 1 ns $end
$date 2024-09-18 13:24:39 $end
$scope module Tracer $end
$var wire 1 0 wire $end
$upscope $end
$enddefinitions $end
#0
$dumpvars
b1 0
$end
#1
b0 0
#2
b1 0
#3
b0 0
#4
b1 0
#5
b0 0
#6
b1 0
#7
b0 0
#8
b1 0
#9
b0 0
#10
b1 0
#11
b0 0
#12
b1 0
#13
b0 0
#14
b1 0
#15
b0 0
#16
b1 0
#17
b0 0
#18
b1 0
#19
b0 0
#20
b1 0
#21
b0 0
#22
b1 0
#23
b0 0
#24
b1 0
#25
b0 0
#26
b1 0
#27
b0 0
#28
b1 0
#29
b0 0
#30
b1 0
#31
b0 0
#32
b1 0
#33
b0 0
#34
b1 0
#35
b0 0
#36
b1 0
#37
b0 0
#38
b1 0
#39
b0 0
#40
b1 0
#41
b0 0
#42
b1 0
#43
b0 0
#44
b1 0
#45
b0 0
#46
b1 0
#47
b0 0
#48
b1 0
#49
b0 0
#50
b1 0
#51
b0 0
#52
b1 0
#53
b0 0
#54
b1 0
#55
b0 0
#56
b1 0
#57
b0 0
#58
b1 0
#59
b0 0
#60
b1 0
#61
b0 0
#62
b1 0
#63
b0 0
#64
b1 0
#65
b0 0
#66
b1 0
#67
b0 0
#68
b1 0
#69
b0 0
#70
b1 0
#71
b0 0
#72
b1 0
#73
b0 0
#74
b1 0
#75
b0 0
#76
b1 0
#77
b0 0
#78
b1 0
#79
b0 0
#80
b1 0
#81
b0 0
#82
b1 0
#83
b0 0
#84
b1 0
#85
b0 0
#86
b1 0
#87
b0 0
#88
b1 0
#89
b0 0
#90
b1 0
#91
b0 0
#92
b1 0
#93
b0 0
#94
b1 0
#95
b0 0
#96
b1 0
#97
b0 0
#98
b1 0
#99
b0 0
#100
b1 0
