results/counter.vcd
$timescale 1 ns $end
$date 2024-09-18 20:17:48 $end
$scope module Main $end
$var wire 1 0 clk $end
$var wire 8 1 myCnt $end
$upscope $end
$enddefinitions $end
#0
$dumpvars
b00000001 1
b1 0
$end
#1
b0 0
#2
b1 0
b00000010 1
#3
b0 0
#4
b1 0
b00000011 1
#5
b0 0
#6
b1 0
b00000100 1
#7
b0 0
#8
b1 0
b00000101 1
#9
b0 0
#10
b1 0
b00000110 1
#11
b0 0
#12
b1 0
b00000111 1
#13
b0 0
#14
b1 0
b00001000 1
#15
b0 0
#16
b1 0
b00001001 1
#17
b0 0
#18
b1 0
b00001010 1
#19
b0 0
#20
b1 0
b00001011 1
#21
b0 0
#22
b1 0
b00001100 1
#23
b0 0
#24
b1 0
b00001101 1
#25
b0 0
#26
b1 0
b00001110 1
#27
b0 0
#28
b1 0
b00001111 1
#29
b0 0
#30
b1 0
b00010000 1
#31
b0 0
#32
b1 0
b00010001 1
#33
b0 0
#34
b1 0
b00010010 1
#35
b0 0
#36
b1 0
b00010011 1
#37
b0 0
#38
b1 0
b00010100 1
#39
b0 0
#40
b1 0
b00010101 1
#41
b0 0
#42
b1 0
b00010110 1
#43
b0 0
#44
b1 0
b00010111 1
#45
b0 0
#46
b1 0
b00011000 1
#47
b0 0
#48
b1 0
b00011001 1
#49
b0 0
#50
b1 0
b00011010 1
#51
b0 0
#52
b1 0
b00011011 1
#53
b0 0
#54
b1 0
b00011100 1
#55
b0 0
#56
b1 0
b00011101 1
#57
b0 0
#58
b1 0
b00011110 1
#59
b0 0
#60
b1 0
b00011111 1
#61
b0 0
#62
b1 0
b00100000 1
#63
b0 0
#64
b1 0
b00100001 1
#65
b0 0
#66
b1 0
b00100010 1
#67
b0 0
#68
b1 0
b00100011 1
#69
b0 0
#70
b1 0
b00100100 1
#71
b0 0
#72
b1 0
b00100101 1
#73
b0 0
#74
b1 0
b00100110 1
#75
b0 0
#76
b1 0
b00100111 1
#77
b0 0
#78
b1 0
b00101000 1
#79
b0 0
#80
b1 0
b00101001 1
#81
b0 0
#82
b1 0
b00101010 1
#83
b0 0
#84
b1 0
b00101011 1
#85
b0 0
#86
b1 0
b00101100 1
#87
b0 0
#88
b1 0
b00101101 1
#89
b0 0
#90
b1 0
b00101110 1
#91
b0 0
#92
b1 0
b00101111 1
#93
b0 0
#94
b1 0
b00110000 1
#95
b0 0
#96
b1 0
b00110001 1
#97
b0 0
#98
b1 0
b00110010 1
#99
b0 0
#100
b1 0
b00110011 1
