results/counter.vcd
$timescale 1 ns $end
$date 2024-09-18 23:56:17 $end
$scope module Main $end
$var wire 1 0 clk $end
$var wire 1 1 myClkDiv $end
$var wire 8 2 myCnt $end
$upscope $end
$enddefinitions $end
#0
$dumpvars
b00000001 2
b0 1
b1 0
$end
#1
b0 0
#2
b1 0
b00000010 2
#3
b0 0
b1 1
b00000011 2
#4
b1 0
b00000100 2
#5
b0 0
#6
b1 0
b00000101 2
#7
b0 0
b0 1
#8
b1 0
b00000110 2
#9
b0 0
#10
b1 0
b00000111 2
#11
b0 0
b1 1
b00001000 2
#12
b1 0
b00001001 2
#13
b0 0
#14
b1 0
b00001010 2
#15
b0 0
b0 1
#16
b1 0
b00001011 2
#17
b0 0
#18
b1 0
b00001100 2
#19
b0 0
b1 1
b00001101 2
#20
b1 0
b00001110 2
#21
b0 0
#22
b1 0
b00001111 2
#23
b0 0
b0 1
#24
b1 0
b00010000 2
#25
b0 0
#26
b1 0
b00010001 2
#27
b0 0
b1 1
b00010010 2
#28
b1 0
b00010011 2
#29
b0 0
#30
b1 0
b00010100 2
#31
b0 0
b0 1
#32
b1 0
b00010101 2
#33
b0 0
#34
b1 0
b00010110 2
#35
b0 0
b1 1
b00010111 2
#36
b1 0
b00011000 2
#37
b0 0
#38
b1 0
b00011001 2
#39
b0 0
b0 1
#40
b1 0
b00011010 2
#41
b0 0
#42
b1 0
b00011011 2
#43
b0 0
b1 1
b00011100 2
#44
b1 0
b00011101 2
#45
b0 0
#46
b1 0
b00011110 2
#47
b0 0
b0 1
#48
b1 0
b00011111 2
#49
b0 0
#50
b1 0
b00100000 2
#51
b0 0
b1 1
b00100001 2
#52
b1 0
b00100010 2
#53
b0 0
#54
b1 0
b00100011 2
#55
b0 0
b0 1
#56
b1 0
b00100100 2
#57
b0 0
#58
b1 0
b00100101 2
#59
b0 0
b1 1
b00100110 2
#60
b1 0
b00100111 2
#61
b0 0
#62
b1 0
b00101000 2
#63
b0 0
b0 1
#64
b1 0
b00101001 2
#65
b0 0
#66
b1 0
b00101010 2
#67
b0 0
b1 1
b00101011 2
#68
b1 0
b00101100 2
#69
b0 0
#70
b1 0
b00101101 2
#71
b0 0
b0 1
#72
b1 0
b00101110 2
#73
b0 0
#74
b1 0
b00101111 2
#75
b0 0
b1 1
b00110000 2
#76
b1 0
b00110001 2
#77
b0 0
#78
b1 0
b00110010 2
#79
b0 0
b0 1
#80
b1 0
b00110011 2
#81
b0 0
#82
b1 0
b00110100 2
#83
b0 0
b1 1
b00110101 2
#84
b1 0
b00110110 2
#85
b0 0
#86
b1 0
b00110111 2
#87
b0 0
b0 1
#88
b1 0
b00111000 2
#89
b0 0
#90
b1 0
b00111001 2
#91
b0 0
b1 1
b00111010 2
#92
b1 0
b00111011 2
#93
b0 0
#94
b1 0
b00111100 2
#95
b0 0
b0 1
#96
b1 0
b00111101 2
#97
b0 0
#98
b1 0
b00111110 2
#99
b0 0
b1 1
b00111111 2
#100
b1 0
b01000000 2
