results/counter.vcd
$timescale 1 ns $end
$date 2024-09-19 01:12:47 $end
$scope module Main $end
$var wire 1 0 clk $end
$var wire 8 1 myCnt $end
$upscope $end
$enddefinitions $end
#0
$dumpvars
b00000001 1
bx 0
$end
#1
#2
b00000010 1
#3
b00000011 1
#4
b00000100 1
#5
#6
b00000101 1
#7
#8
b00000110 1
#9
#10
b00000111 1
#11
b00001000 1
#12
b00001001 1
#13
#14
b00001010 1
#15
#16
b00001011 1
#17
#18
b00001100 1
#19
b00001101 1
#20
b00001110 1
#21
#22
b00001111 1
#23
#24
b00010000 1
#25
#26
b00010001 1
#27
b00010010 1
#28
b00010011 1
#29
#30
b00010100 1
#31
#32
b00010101 1
#33
#34
b00010110 1
#35
b00010111 1
#36
b00011000 1
#37
#38
b00011001 1
#39
#40
b00011010 1
#41
#42
b00011011 1
#43
b00011100 1
#44
b00011101 1
#45
#46
b00011110 1
#47
#48
b00011111 1
#49
#50
b00100000 1
#51
b00100001 1
#52
b00100010 1
#53
#54
b00100011 1
#55
#56
b00100100 1
#57
#58
b00100101 1
#59
b00100110 1
#60
b00100111 1
#61
#62
b00101000 1
#63
#64
b00101001 1
#65
#66
b00101010 1
#67
b00101011 1
#68
b00101100 1
#69
#70
b00101101 1
#71
#72
b00101110 1
#73
#74
b00101111 1
#75
b00110000 1
#76
b00110001 1
#77
#78
b00110010 1
#79
#80
b00110011 1
#81
#82
b00110100 1
#83
b00110101 1
#84
b00110110 1
#85
#86
b00110111 1
#87
#88
b00111000 1
#89
#90
b00111001 1
#91
b00111010 1
#92
b00111011 1
#93
#94
b00111100 1
#95
#96
b00111101 1
#97
#98
b00111110 1
#99
b00111111 1
#100
b01000000 1
